<?xml version="1.0" encoding="UTF-8" standalone="no"?>
<svg width="124px" height="124px" viewBox="0 0 517 517" xmlns="http://www.w3.org/2000/svg" fill="#FF0000">
  <path transform="rotate(0)" transform-origin="center"
    d="M46.875,258.333c0,116.003 95.456,211.459 211.458,211.459c116.003,-0 211.459,-95.456 211.459,-211.459c-0,-116.002 -95.456,-211.458 -211.459,-211.458c-116.002,-0 -211.458,95.456 -211.458,211.458Zm453.125,0c0,132.575 -109.092,241.667 -241.667,241.667c-132.574,0 -241.666,-109.092 -241.666,-241.667c-0,-132.574 109.092,-241.666 241.666,-241.666c132.575,-0 241.667,109.092 241.667,241.666Zm-226.563,105.73c0,8.285 -6.818,15.104 -15.104,15.104c-8.286,-0 -15.104,-6.819 -15.104,-15.104l0,-174.997l-64.827,64.857c-2.835,2.835 -6.684,4.429 -10.694,4.429c-8.296,0 -15.123,-6.826 -15.123,-15.123c0,-4.009 1.595,-7.859 4.43,-10.694l90.625,-90.625c2.832,-2.839 6.682,-4.437 10.693,-4.437c4.011,0 7.862,1.598 10.694,4.437l90.625,90.625c2.835,2.835 4.43,6.685 4.43,10.694c-0,8.297 -6.827,15.123 -15.124,15.123c-4.009,0 -7.858,-1.594 -10.693,-4.429l-64.828,-64.857l0,174.997Z" />
</svg>